inputs/2085.88027290.txt    2085.8802729046    1.0
inputs/2085.92837720.txt    2085.9283772046    1.0
inputs/2085.97271980.txt    2085.9727198046    1.0
inputs/2085.99832300.txt    2085.9983230046    1.0
inputs/2086.81141990.txt    2086.8114199046    1.0
inputs/2086.87064740.txt    2086.8706474046    1.0
inputs/2086.88451390.txt    2086.8845139046    1.0
inputs/2086.90437600.txt    2086.9043760046    1.0
inputs/2086.98909090.txt    2086.9890909046    1.0
inputs/2087.80424750.txt    2087.8042475046    1.0
inputs/2087.85339350.txt    2087.8533935046    1.0
inputs/2087.86394960.txt    2087.8639496046    1.0
inputs/2087.89859250.txt    2087.8985925046    1.0
inputs/2088.77643670.txt    2088.7764367046    1.0
inputs/2088.83521270.txt    2088.8352127046    1.0
inputs/2088.86261000.txt    2088.8626100046    1.0
inputs/2088.91335310.txt    2088.9133531046    1.0
inputs/2088.94168780.txt    2088.9416878046    1.0
inputs/2089.78065220.txt    2089.7806522046    1.0
inputs/2089.87873560.txt    2089.8787356046    1.0
inputs/2089.91084360.txt    2089.9108436046    1.0
inputs/2089.95247760.txt    2089.9524776046    1.0
inputs/2090.87389870.txt    2090.8738987046    1.0
inputs/2090.91718770.txt    2090.9171877046    1.0
inputs/2090.93522100.txt    2090.9352210046    1.0
inputs/2090.95132130.txt    2090.9513213046    1.0
inputs/2090.96589370.txt    2090.9658937046    1.0
inputs/2091.80586360.txt    2091.8058636046    1.0
inputs/2091.87016050.txt    2091.8701605046    1.0
inputs/2091.88658490.txt    2091.8865849046    1.0
inputs/2091.90322920.txt    2091.9032292046    1.0
inputs/2091.91972300.txt    2091.9197230046    1.0
inputs/2092.81329410.txt    2092.8132941046    1.0
inputs/2092.84170970.txt    2092.8417097046    1.0
inputs/2092.88313520.txt    2092.8831352046    1.0
inputs/2092.98789690.txt    2092.9878969046    1.0
inputs/2093.79736610.txt    2093.7973661046    1.0
inputs/2093.85498450.txt    2093.8549845046    1.0
inputs/2093.89689600.txt    2093.8968960046    1.0
inputs/2093.91282260.txt    2093.9128226046    1.0
inputs/2093.97885570.txt    2093.9788557046    1.0
inputs/2094.81473730.txt    2094.8147373046    1.0
inputs/2094.87992540.txt    2094.8799254046    1.0
inputs/2094.89569000.txt    2094.8956900046    1.0
inputs/2094.94473140.txt    2094.9447314046    1.0
inputs/2094.95051880.txt    2094.9505188046    1.0
inputs/2095.79370320.txt    2095.7937032046    1.0
inputs/2095.82849640.txt    2095.8284964046    1.0
inputs/2095.91874330.txt    2095.9187433046    1.0
inputs/2095.95537680.txt    2095.9553768046    1.0
inputs/2096.82210310.txt    2096.8221031046    1.0
inputs/2096.86065800.txt    2096.8606580046    1.0
inputs/2096.91133140.txt    2096.9113314046    1.0
inputs/2096.95580080.txt    2096.9558008046    1.0
inputs/2096.99186720.txt    2096.9918672046    1.0
inputs/2097.82528110.txt    2097.8252811046    1.0
inputs/2097.88103560.txt    2097.8810356046    1.0
inputs/2097.94307520.txt    2097.9430752046    1.0
inputs/2097.98391020.txt    2097.9839102046    1.0
inputs/2428.02274190.txt    2428.0227419046    1.0
inputs/2429.93824740.txt    2429.9382474046    1.0
inputs/2429.97166390.txt    2429.9716639046    1.0
inputs/2432.01190960.txt    2432.0119096046    1.0
inputs/2432.99764300.txt    2432.9976430046    1.0
inputs/2433.99372380.txt    2433.9937238046    1.0
inputs/2436.97961390.txt    2436.9796139046    1.0
inputs/2437.95721940.txt    2437.9572194046    1.0
inputs/2438.99659880.txt    2438.9965988046    1.0
inputs/2482.97191580.txt    2482.9719158046    1.0
inputs/2841.69845460.txt    2841.6984546046    1.0
inputs/2841.73287680.txt    2841.7328768046    1.0
inputs/2841.74773830.txt    2841.7477383046    1.0
inputs/2841.76090990.txt    2841.7609099046    1.0
inputs/2841.77199820.txt    2841.7719982046    1.0
inputs/2841.78321370.txt    2841.7832137046    1.0
inputs/2841.91988410.txt    2841.9198841046    1.0
inputs/2842.70877040.txt    2842.7087704046    1.0
inputs/2842.72204620.txt    2842.7220462046    1.0
inputs/2842.73375950.txt    2842.7337595046    1.0
inputs/2842.74498660.txt    2842.7449866046    1.0
inputs/2842.75867920.txt    2842.7586792046    1.0
inputs/2843.69239470.txt    2843.6923947046    1.0
inputs/2843.71519620.txt    2843.7151962046    1.0
inputs/2843.72866870.txt    2843.7286687046    1.0
inputs/2843.74052090.txt    2843.7405209046    1.0
inputs/2843.75548660.txt    2843.7554866046    1.0
inputs/2843.77571850.txt    2843.7757185046    1.0
inputs/2843.80754790.txt    2843.8075479046    1.0
inputs/2843.82038390.txt    2843.8203839046    1.0
inputs/2843.83974780.txt    2843.8397478046    1.0
inputs/2844.76354310.txt    2844.7635431046    1.0
inputs/2844.77731650.txt    2844.7773165046    1.0
inputs/2844.79049970.txt    2844.7904997046    1.0
inputs/2844.81724810.txt    2844.8172481046    1.0
inputs/2844.83118360.txt    2844.8311836046    1.0
inputs/2845.67911950.txt    2845.6791195046    1.0
inputs/2845.69548570.txt    2845.6954857046    1.0
inputs/2845.71144670.txt    2845.7114467046    1.0
inputs/2845.72751180.txt    2845.7275118046    1.0
inputs/2845.74252370.txt    2845.7425237046    1.0
inputs/2845.75468840.txt    2845.7546884046    1.0
inputs/2845.77317260.txt    2845.7731726046    1.0
inputs/2845.82326620.txt    2845.8232662046    1.0
inputs/2846.68241690.txt    2846.6824169046    1.0
inputs/2846.70114410.txt    2846.7011441046    1.0
inputs/2846.71968620.txt    2846.7196862046    1.0
inputs/2846.73602910.txt    2846.7360291046    1.0
inputs/2846.74913130.txt    2846.7491313046    1.0
inputs/2846.78900470.txt    2846.7890047046    1.0
inputs/2847.67759940.txt    2847.6775994046    1.0
inputs/2847.69700950.txt    2847.6970095046    1.0
inputs/2847.71565570.txt    2847.7156557046    1.0
inputs/2847.73401260.txt    2847.7340126046    1.0
inputs/2847.75226530.txt    2847.7522653046    1.0
inputs/2847.76991600.txt    2847.7699160046    1.0
inputs/2847.79004380.txt    2847.7900438046    1.0
inputs/2848.67804710.txt    2848.6780471046    1.0
inputs/2848.70523520.txt    2848.7052352046    1.0
inputs/2848.71877700.txt    2848.7187770046    1.0
inputs/2848.73805980.txt    2848.7380598046    1.0
inputs/2848.75571060.txt    2848.7557106046    1.0
inputs/2848.77422950.txt    2848.7742295046    1.0
inputs/2849.68364420.txt    2849.6836442046    1.0
inputs/2849.70418860.txt    2849.7041886046    1.0
inputs/2849.72308930.txt    2849.7230893046    1.0
inputs/2849.74179340.txt    2849.7417934046    1.0
inputs/2849.76030070.txt    2849.7603007046    1.0
inputs/2850.68950640.txt    2850.6895064046    1.0
inputs/2850.72358100.txt    2850.7235810046    1.0
inputs/2850.74296780.txt    2850.7429678046    1.0
inputs/2850.77417210.txt    2850.7741721046    1.0
inputs/2850.99161780.txt    2850.9916178046    1.0
inputs/2851.68157080.txt    2851.6815708046    1.0
inputs/2851.69557560.txt    2851.6955756046    1.0
inputs/2851.71349260.txt    2851.7134926046    1.0
inputs/2851.73198820.txt    2851.7319882046    1.0
inputs/2851.75033340.txt    2851.7503334046    1.0
inputs/2852.68768510.txt    2852.6876851046    1.0
inputs/2852.70151630.txt    2852.7015163046    1.0
inputs/2852.72057910.txt    2852.7205791046    1.0
inputs/2852.73887800.txt    2852.7388780046    1.0
