\relax 
\citation{Smeyers_2007}
\@writefile{toc}{\contentsline {section}{\numberline {0.1}Introduction}{1}}
\newlabel{e-from-smeyers}{{1}{1}}
\newlabel{e-all-to-the-left}{{3}{1}}
\@writefile{toc}{\contentsline {section}{\numberline {0.2}Radial Oscillation of Ledoux and Walraven (1958)}{1}}
\bibstyle{aa}
\bibdata{/Users/ehsan/my/papers/my-bib}
